<< Parameters for the system >>  
 	--> The curve generator used : it.unisa.dia.gas.plaf.jpbc.pairing.a1.TypeA1CurveGenerator 
 	--> The pairing parameters :  
 		--> p = 17656156405667321261002053092005592669 
 		--> q = 14942460512247496497727583148413154599